﻿{
  "rounds": [
    {
      "number": 1,
      "name": "Alpha R1 (Era of Julia Medina)",
      "pvp": true,
      "item": false,
      "xp": false,
      "achievement": false
    },
    {
      "number": 2,
      "name": "Alpha R2 (Era of Kiara Kitsu)",
      "pvp": true,
      "item": false,
      "xp": false,
      "achievement": false
    },
    {
      "number": 3,
      "name": "Alpha R3 (Era of Elyn Kitsu)",
      "pvp": true,
      "item": false,
      "xp": false,
      "achievement": false
    },
    {
      "number": 4,
      "name": "Alpha R4 (Era of Celisi Tabiki)",
      "pvp": true,
      "item": false,
      "xp": false,
      "achievement": false
    },
    {
      "number": 5,
      "name": "Alpha R5 (Era of Rust Kitsu)",
      "pvp": true,
      "item": false,
      "xp": false,
      "achievement": false
    },
    {
      "number": 6,
      "name": "Alpha R6 (Era of Helia Harris)",
      "pvp": true,
      "item": false,
      "xp": false,
      "achievement": false
    },
    {
      "number": 7,
      "name": "Alpha R7 (2nd Era of Elyn Kitsu)",
      "pvp": true,
      "item": false,
      "xp": false,
      "achievement": false
    },
    {
      "number": 8,
      "name": "Alpha R8 (Era of Alicia Arriola)",
      "pvp": true,
      "item": false,
      "xp": false,
      "achievement": false
    },
    {
      "number": 9,
      "name": "Alpha R9 (Era of Hanna Patterson)",
      "pvp": true,
      "item": false,
      "xp": false,
      "achievement": false
    },
    {
      "number": 10,
      "name": "Alpha R10 (Era of Cole Kurz)",
      "pvp": true,
      "item": false,
      "xp": false,
      "achievement": false
    },
    {
      "number": 11,
      "name": "Alpha R11 (Era of Jess Ganes)",
      "pvp": true,
      "item": false,
      "xp": false,
      "achievement": false
    },
    {
      "number": 12,
      "name": "Alpha R12 (Era of Soul Blossom)",
      "pvp": true,
      "item": true,
      "xp": true,
      "achievement": false
    },
    {
      "number": 13,
      "name": "Alpha R13 (Era of Alexander Dantes)",
      "pvp": true,
      "item": true,
      "xp": true,
      "achievement": false
    },
    {
      "number": 14,
      "name": "Alpha R14",
      "pvp": true,
      "item": true,
      "xp": true,
      "achievement": false
    },
    {
      "number": 15,
      "name": "Alpha R15 (Era of Nerati Sua)",
      "pvp": true,
      "item": true,
      "xp": true,
      "achievement": false
    },
    {
      "number": 16,
      "name": "Alpha R16",
      "pvp": true,
      "item": true,
      "xp": true,
      "achievement": false
    },
    {
      "number": 17,
      "name": "Alpha R17",
      "pvp": true,
      "item": true,
      "xp": true,
      "achievement": true
    },
    {
      "number": 18,
      "name": "Alpha R18 (Era of Parker Page)",
      "pvp": true,
      "item": true,
      "xp": true,
      "achievement": true
    },
    {
      "number": 19,
      "name": "Alpha R19 (Era of Lex Fairchild)",
      "pvp": true,
      "item": true,
      "xp": true,
      "achievement": true
    },
    {
      "number": 20,
      "name": "Alpha R20",
      "pvp": true,
      "item": true,
      "xp": true,
      "achievement": true
    },
    {
      "number": 21,
      "name": "Alpha R21",
      "pvp": true,
      "item": true,
      "xp": true,
      "achievement": true
    },
    {
      "number": 22,
      "name": "Alpha R22",
      "pvp": true,
      "item": true,
      "xp": true,
      "achievement": true
    },
    {
      "number": 23,
      "name": "Alpha R23 (2nd Era of Nerati Sua)",
      "pvp": true,
      "item": true,
      "xp": true,
      "achievement": true
    },
    {
      "number": 24,
      "name": "Alpha R24 (Era of Heather 'Elaine' Brandenburg)",
      "pvp": true,
      "item": true,
      "xp": true,
      "achievement": true
    },
    {
      "number": 25,
      "name": "Alpha R25 (Era of Princess Cadance II the Psycho Hunter)",
      "pvp": true,
      "item": true,
      "xp": true,
      "achievement": true
    },
    {
      "number": 26,
      "name": "Alpha R26 (Era of Genevieve Moen)",
      "pvp": true,
      "item": true,
      "xp": true,
      "achievement": true
    },
    {
      "number": 27,
      "name": "Alpha R27 (Era of Sammi Wells)",
      "pvp": true,
      "item": true,
      "xp": true,
      "achievement": true
    },
    {
      "number": 28,
      "name": "Alpha R28 (Era of Kristyne Mercy)",
      "pvp": true,
      "item": true,
      "xp": true,
      "achievement": true
    },
    {
      "number": 29,
      "name": "Alpha R29 (Era of Lilith Valentine)",
      "pvp": true,
      "item": true,
      "xp": true,
      "achievement": true
    },
    {
      "number": 30,
      "name": "Alpha R30 (Second Era of Jess 'Street Sweeper' Ganes)",
      "pvp": true,
      "item": true,
      "xp": true,
      "achievement": true
    },
    {
      "number": 31,
      "name": "Alpha R31 (Era of Fox Cross)",
      "pvp": true,
      "item": true,
      "xp": true,
      "achievement": true
    },
    {
      "number": 32,
      "name": "Alpha R32 (Era of Dane Redd)",
      "pvp": true,
      "item": true,
      "xp": true,
      "achievement": true
    },
    {
      "number": 33,
      "name": "Alpha R33 (Second Era of Dane Redd)",
      "pvp": true,
      "item": true,
      "xp": true,
      "achievement": true
    },
    {
      "number": 34,
      "name": "Alpha R34 (Third Era of Dane Redd)",
      "pvp": true,
      "item": true,
      "xp": true,
      "achievement": true
    },
    {
      "number": 35,
      "name": "Alpha R35 (Era of Evangelina 'Sylwinds and Shadows' Kraft))",
      "pvp": true,
      "item": true,
      "xp": true,
      "achievement": true
    },
    {
      "number": 36,
      "name": "Alpha R36 (Era of Dark Blade)",
      "pvp": true,
      "item": true,
      "xp": true,
      "achievement": true
    },
    {
      "number": 37,
      "name": "Alpha R37 (Era of Maria Rein)",
      "pvp": true,
      "item": true,
      "xp": true,
      "achievement": true
    },
    {
      "number": 38,
      "name": "Alpha R38 (Era of Freya Rein)",
      "pvp": true,
      "item": true,
      "xp": true,
      "achievement": true
    },
    {
      "number": 39,
      "name": "Alpha R39 (Era of Annabelle Jumeau)",
      "pvp": true,
      "item": true,
      "xp": true,
      "achievement": true
    },
    {
      "number": 40,
      "name": "Alpha R40 (Fourth Era of Dane Redd)",
      "pvp": true,
      "item": true,
      "xp": true,
      "achievement": true
    },
    {
      "number": 41,
      "name": "Alpha R41 (Era of Aleksander Vonhel)",
      "pvp": true,
      "item": true,
      "xp": true,
      "achievement": true
    },
    {
      "number": 42,
      "name": "Alpha R42 (Second Era of Dark Blade)",
      "pvp": true,
      "item": true,
      "xp": true,
      "achievement": true
    },
    {
      "number": 43,
      "name": "Alpha R43 (Era of Lara Ithilwen)",
      "pvp": true,
      "item": true,
      "xp": true,
      "achievement": true
    },
    {
      "number": 44,
      "name": "Alpha R44 (Era of Kasey Westler)",
      "pvp": true,
      "item": true,
      "xp": true,
      "achievement": true
    },
    {
      "number": 45,
      "name": "Alpha R45 (Era of Pepe Maus)",
      "pvp": true,
      "item": true,
      "xp": true,
      "achievement": true
    },
    {
      "number": 46,
      "name": "Alpha R46 (Era of Lucius Valentine)",
      "pvp": true,
      "item": true,
      "xp": true,
      "achievement": true
    },
    {
      "number": 47,
      "name": "Alpha R47 (Era of Elle Sawyer)",
      "pvp": true,
      "item": true,
      "xp": true,
      "achievement": true
    },
    {
      "number": 48,
      "name": "Alpha R48 (Era of Cali Ziegler)",
      "pvp": true,
      "item": true,
      "xp": true,
      "achievement": true
    },
    {
      "number": 49,
      "name": "Alpha R49 (Era of Henny Wuns)",
      "pvp": true,
      "item": true,
      "xp": true,
      "achievement": true
    },
    {
      "number": 50,
      "name": "Alpha R50 (Era of Yuriko Oyama)",
      "pvp": true,
      "item": true,
      "xp": true,
      "achievement": true
    },
    {
      "number": 51,
      "name": "Alpha R51 (Era of Iris Waldron)",
      "pvp": true,
      "item": true,
      "xp": true,
      "achievement": true
    },
    {
      "number": 52,
      "name": "Alpha R52 (Era of Abigail Jasione)",
      "pvp": true,
      "item": true,
      "xp": true,
      "achievement": true
    },
    {
      "number": 53,
      "name": "Alpha R53 (Era of Lydia Gemma)",
      "pvp": true,
      "item": true,
      "xp": true,
      "achievement": true
    },
    {
      "number": 54,
      "name": "Alpha R54 (Era of Yvesza Sylwind)",
      "pvp": true,
      "item": true,
      "xp": true,
      "achievement": true
    },
    {
      "number": 55,
      "name": "Alpha R55 (Era of Emily Hart)",
      "pvp": true,
      "item": true,
      "xp": true,
      "achievement": true
    },
    {
      "number": 56,
      "name": "Alpha R56 (Second Era of Lucius Valentine)",
      "pvp": true,
      "item": true,
      "xp": true,
      "achievement": true
    },
    {
      "number": 57,
      "name": "Alpha R57 (Era of Sorcha Primrose)",
      "pvp": true,
      "item": true,
      "xp": true,
      "achievement": true
    },
    {
      "number": 58,
      "name": "Alpha R58 (Second Era of Abigail Jasione)",
      "pvp": true,
      "item": true,
      "xp": true,
      "achievement": true
    },
    {
      "number": 59,
      "name": "Alpha R59 (Era of Celine Nysa)",
      "pvp": true,
      "item": true,
      "xp": true,
      "achievement": true
    },
    {
      "number": 60,
      "name": "Alpha 60 (Second Era of Lara Ithilwen)",
      "pvp": true,
      "item": true,
      "xp": true,
      "achievement": true
    },
    {
      "number": 61,
      "name": "Alpha 61 (Era of Amie Proffitt)",
      "pvp": true,
      "item": true,
      "xp": true,
      "achievement": true
    },
    {
      "number": 62,
      "name": "Alpha 62 (Era of Grizel Indivar)",
      "pvp": true,
      "item": true,
      "xp": true,
      "achievement": true
    },
    {
      "number": 63,
      "name": "Alpha 63 (Era of Razlien Banks)",
      "pvp": true,
      "item": true,
      "xp": true,
      "achievement": true
    },
    {
      "number": 64,
      "name": "Alpha 64 (Era of Titania Siofra)",
      "pvp": true,
      "item": true,
      "xp": true,
      "achievement": true
    },
    {
      "number": 65,
      "name": "Alpha 65 (Era of Viola Hawthorne)",
      "pvp": true,
      "item": true,
      "xp": true,
      "achievement": true
    },
    {
      "number": 66,
      "name": "Alpha 66 (Era of Alice Grayson)",
      "pvp": true,
      "item": true,
      "xp": true,
      "achievement": true
    },
    {
      "number": 67,
      "name": "Alpha 67 (Era of Sunnyglade Mafia)",
      "pvp": true,
      "item": true,
      "xp": true,
      "achievement": true
    },
    {
      "number": 68,
      "name": "Alpha 68 (Era of a Hallow Victory)",
      "pvp": true,
      "item": true,
      "xp": true,
      "achievement": true
    },
    {
      "number": 69,
      "name": "Alpha 69 (Era of Food for Thought)",
      "pvp": true,
      "item": true,
      "xp": true,
      "achievement": true
    },
    {
      "number": 70,
      "name": "Alpha 70 (Era of Krampus Fun)",
      "pvp": true,
      "item": true,
      "xp": true,
      "achievement": true
    },
    {
      "number": 71,
      "name": "Alpha 71 (Era of Back to School)",
      "pvp": true,
      "item": true,
      "xp": true,
      "achievement": true
    },
    {
      "number": 72,
      "name": "Alpha 72 (Era of Freeeeedom!)",
      "pvp": true,
      "item": true,
      "xp": true,
      "achievement": true
    },
    {
      "number": 73,
      "name": "Alpha 73 (Era of Funny Bunnies!)",
      "pvp": true,
      "item": true,
      "xp": true,
      "achievement": true
    },
    {
      "number": 74,
      "name": "Alpha 74 (Era of Flowers)",
      "pvp": true,
      "item": true,
      "xp": true,
      "achievement": true
    }
  ]
}